{
  "project_info": {
    "project_number": "728535494143",
    "firebase_url": "https://fcm-example-8f279.firebaseio.com",
    "project_id": "fcm-example-8f279",
    "storage_bucket": "fcm-example-8f279.appspot.com"
  },
  "client": [
    {
      "client_info": {
        "mobilesdk_app_id": "1:728535494143:android:1c3516d4df7ec01d",
        "android_client_info": {
          "package_name": "eton.com.fcm_example"
        }
      },
      "oauth_client": [
        {
          "client_id": "728535494143-cbj9n0vkad83jiotjinsrs507q0icaeh.apps.googleusercontent.com",
          "client_type": 1,
          "android_info": {
            "package_name": "eton.com.fcm_example",
            "certificate_hash": "e938eed8ea6799cca4a7d1f77869da828aa6ab65"
          }
        },
        {
          "client_id": "728535494143-snvke30u0r7e4551j8pqvv5cih3q52rr.apps.googleusercontent.com",
          "client_type": 3
        }
      ],
      "api_key": [
        {
          "current_key": "AIzaSyAXQ26r-2gcGtMY7E0_IZK5AT0ZhLfWsa4"
        }
      ],
      "services": {
        "analytics_service": {
          "status": 1
        },
        "appinvite_service": {
          "status": 2,
          "other_platform_oauth_client": [
            {
              "client_id": "728535494143-snvke30u0r7e4551j8pqvv5cih3q52rr.apps.googleusercontent.com",
              "client_type": 3
            }
          ]
        },
        "ads_service": {
          "status": 2
        }
      }
    }
  ],
  "configuration_version": "1"
}